stm32f4xx_hal_msp.c:49:6:HAL_MspInit	16	static
stm32f4xx_hal_msp.c:81:6:HAL_TIM_Base_MspInit	16	static
stm32f4xx_hal_msp.c:101:6:HAL_TIM_MspPostInit	32	static
stm32f4xx_hal_msp.c:128:6:HAL_TIM_Base_MspDeInit	0	static
